…
These are basic examples of what `corpuscleaner` can do when combined
with basic text analysis:

``` r
library(corpuscleaner)
library(dplyr)
library(tidytext)

novels() %>%
  unnest_tokens(word, 
                text, 
                token = "words") %>%
  anti_join(get_stopwords("en", source = "smart"))
#> # A tibble: 895,673 × 5
#>       ID title              year author        word     
#>    <dbl> <chr>             <dbl> <chr>         <chr>    
#>  1     1 Wuthering Heights  1847 Bronte, Emily wuthering
#>  2     1 Wuthering Heights  1847 Bronte, Emily heights  
#>  3     1 Wuthering Heights  1847 Bronte, Emily chapter  
#>  4     1 Wuthering Heights  1847 Bronte, Emily returned 
#>  5     1 Wuthering Heights  1847 Bronte, Emily visit    
#>  6     1 Wuthering Heights  1847 Bronte, Emily landlord 
#>  7     1 Wuthering Heights  1847 Bronte, Emily solitary 
#>  8     1 Wuthering Heights  1847 Bronte, Emily neighbour
#>  9     1 Wuthering Heights  1847 Bronte, Emily troubled 
#> 10     1 Wuthering Heights  1847 Bronte, Emily beautiful
#> # ℹ 895,663 more rows
```
…
UA = unigram_Analysis %>%
  unnest_tokens(word, 
                text, 
                token = "words") %>%
  anti_join(get_stopwords("en", source = "smart")) 

UA_Count_Words = UA %>%
  count(word, sort = T)
UA_Count_Words
#> # A tibble: 5,396 × 3
#> # Groups:   id [1]
#>    id    word            n
#>    <chr> <chr>       <int>
#>  1 1     caliph        151
#>  2 1     vathek        125
#>  3 1     nouronihar     87
#>  4 1     carathis       79
#>  5 1     thy            78
#>  6 1     thou           72
#>  7 1     whilst         66
#>  8 1     bababalouk     55
#>  9 1     gulchenrouz    54
#> 10 1     palace         47
#> # ℹ 5,386 more rows
```
…
