18 Cleaned Novels — novels • corpuscleaner
…
#> 
#> Attaching package: ‘dplyr’
#> The following objects are masked from ‘package:stats’:
#> 
#>     filter, lag
#> The following objects are masked from ‘package:base’:
#> 
#>     intersect, setdiff, setequal, union
library(tidytext)
novels() %>%
  unnest_tokens(word, text) %>%
  anti_join(get_stopwords("en", source = "smart")) %>%
  count(ID, title, word, sort = T)
#> Joining with `by = join_by(word)`
#> # A tibble: 143,198 × 4
#>       ID title                    word         n
#>    <dbl> <chr>                    <chr>    <int>
#>  1     7 The Mysteries of Udolpho emily     2227
#>  2    16 The Portrait of a Lady   isabel    1485
#>  3    13 North and South          margaret  1443
#>  4    13 North and South          mr         989
#>  5    10 Ivanhoe                  thou       947
#>  6     7 The Mysteries of Udolpho montoni    918
#>  7    14 The Woman in White       sir        842
#>  8    16 The Portrait of a Lady   don        833
#>  9    14 The Woman in White       percival   749
#> 10    15 Great Expectations       joe        747
#> # ℹ 143,188 more rows
…
