Introduction of corpuscleaner • corpuscleaner
…
unnest_N4_grams

unnest_N5_grams

These are examples of basic Text Analysis of the datasets using the
novels() and document_by_ID functions.

# novels()
novels() %>%
  unnest_tokens(word, 
                text, 
                token = "words") %>%
  anti_join(get_stopwords("en", source = "smart")) %>%
  count(ID, title, word, sort = T)
#> # A tibble: 143,198 × 4
#>       ID title                    word         n
#>    <dbl> <chr>                    <chr>    <int>
#>  1     7 The Mysteries of Udolpho emily     2227
#>  2    16 The Portrait of a Lady   isabel    1485
#>  3    13 North and South          margaret  1443
#>  4    13 North and South          mr         989
#>  5    10 Ivanhoe                  thou       947
#>  6     7 The Mysteries of Udolpho montoni    918
#>  7    14 The Woman in White       sir        842
#>  8    16 The Portrait of a Lady   don        833
#>  9    14 The Woman in White       percival   749
#> 10    15 Great Expectations       joe        747
#> # ℹ 143,188 more rows
…
#>  9 9     Wuthering Heights              wuthering heights chapter … 1847  Bront…
#> 10 10    The House of Seven Gables      the house of the seven gab… 1851  Hawth…
#> 11 11    North and South                north and south by elizabe… 1854  Gaske…
#> 12 12    The Woman in White             the woman in white by wilk… 1860  Colli…
#> 13 13    Great Expectations             chapter i my father s fami… 1861  Dicke…
#> 14 14    The Portrait of a Lady         chapter i under certain ci… 1881  James…
#> 15 15    Treasure Island                to the hesitating purchase… 1882  Steve…
#> 16 16    Dr Jekyll and Hyde             strange case of dr jekyll … 1886  Steve…
#> 17 17    The Picture of Dorian Gray     the artist is the creator … 1890  Wilde…
#> 18 18    Dracula                        chapter jonathan harker s … 1897  Stoke…
UAnalysis = unnest_unigrams(id == 7)
UWords = UAnalysis %>%
  anti_join(get_stopwords("en", source = "smart"))
UWords
#> # A tibble: 76,089 × 5
#>    id    title   author            year  word     
#>    <chr> <chr>   <chr>             <chr> <chr>    
#>  1 7     Ivanhoe Scott, Sir Walter 1820  ivanhoe  
#>  2 7     Ivanhoe Scott, Sir Walter 1820  romance  
#>  3 7     Ivanhoe Scott, Sir Walter 1820  sir      
#>  4 7     Ivanhoe Scott, Sir Walter 1820  walter   
#>  5 7     Ivanhoe Scott, Sir Walter 1820  scott    
#>  6 7     Ivanhoe Scott, Sir Walter 1820  fitted   
#>  7 7     Ivanhoe Scott, Sir Walter 1820  halter   
#>  8 7     Ivanhoe Scott, Sir Walter 1820  traversed
#>  9 7     Ivanhoe Scott, Sir Walter 1820  cart     
#> 10 7     Ivanhoe Scott, Sir Walter 1820  leave    
#> # ℹ 76,079 more rows

UCount = UWords %>%
  count(word, sort = T)
UCount
#> # A tibble: 11,844 × 2
#>    word        n
#>    <chr>   <int>
#>  1 thou      947
#>  2 thy       578
#>  3 de        563
#>  4 knight    547
#>  5 thee      451
#>  6 cedric    339
#>  7 good      298
#>  8 rebecca   298
#>  9 saxon     282
#> 10 master    268
#> # ℹ 11,834 more rows

# Bigram Analysis
BAnalysis = unnest_bigrams(id == 4)
BWords = BAnalysis %>%
  separate(token_two, c("word1", "word2"), sep = " ") %>%
  filter(!(word1 %in% stopwords::stopwords("en", source = "smart"))) %>%
  filter(!(word2 %in% stopwords::stopwords("en", source = "smart"))) %>%
  unite(token_two, word1, word2, sep = " ")
BWords
#> # A tibble: 6,532 × 5
#>    id    title               author         year  token_two        
#>    <chr> <chr>               <chr>          <chr> <chr>            
#>  1 4     The Monk: A Romance Lewis, Matthew 1795  lewis somnia     
#>  2 4     The Monk: A Romance Lewis, Matthew 1795  terrores magicos 
#>  3 4     The Monk: A Romance Lewis, Matthew 1795  miracula sagas   
#>  4 4     The Monk: A Romance Lewis, Matthew 1795  nocturnos lemures
#>  5 4     The Monk: A Romance Lewis, Matthew 1795  portentaque horat
#>  6 4     The Monk: A Romance Lewis, Matthew 1795  dreams magic     
#>  7 4     The Monk: A Romance Lewis, Matthew 1795  terrors spells   
#>  8 4     The Monk: A Romance Lewis, Matthew 1795  power witches    
#>  9 4     The Monk: A Romance Lewis, Matthew 1795  hour preface     
#> 10 4     The Monk: A Romance Lewis, Matthew 1795  horace ep        
#> # ℹ 6,522 more rows

BCount = BWords %>%
  count(token_two, sort = T)
BCount
#> # A tibble: 5,894 × 2
#>    token_two          n
#>    <chr>          <int>
#>  1 st clare          35
#>  2 las cisternas     21
#>  3 don ramirez       15
#>  4 don christoval    13
#>  5 de las            12
#>  6 st ursula         12
#>  7 de medina         11
#>  8 don gaston        11
#>  9 don raymond       11
#> 10 marquis de        11
#> # ℹ 5,884 more rows
…
Aside from this, you can do higher text analysis using
novels such as tf-idf:

# Part 1: Finding the commonly used words in all documents
doc_words = novels() %>%
  unnest_tokens(word, text) %>%
  count(title, word, sort = T)

tot_words = doc_words %>%
  group_by(title) %>% 
  summarize(total = sum(n))

put_words = left_join(doc_words, tot_words)
put_words
#> # A tibble: 150,525 × 4
#>    title                    word      n  total
#>    <chr>                    <chr> <int>  <int>
#>  1 The Mysteries of Udolpho the   19063 294093
#>  2 The Woman in White       the   14947 250487
#>  3 Ivanhoe                  the   12464 179284
#>  4 The Mysteries of Udolpho and    9818 294093
#>  5 The Mysteries of Udolpho to     9693 294093
#>  6 The Mysteries of Udolpho of     9523 294093
#>  7 The Woman in White       to     8486 250487
#>  8 Great Expectations       the    8145 188943
#>  9 The Portrait of a Lady   the    8066 233165
#> 10 Dracula                  the    7865 161799
#> # ℹ 150,515 more rows

# Part 2: Using Zipf's law in Finding Word Frequency
frequency_rank = put_words %>%
  group_by(title) %>%
  mutate(rank = row_number(),
         term_frequency = n/total) %>%
  ungroup()

frequency_rank
#> # A tibble: 150,525 × 6
#>    title                    word      n  total  rank term_frequency
#>    <chr>                    <chr> <int>  <int> <int>          <dbl>
#>  1 The Mysteries of Udolpho the   19063 294093     1         0.0648
#>  2 The Woman in White       the   14947 250487     1         0.0597
#>  3 Ivanhoe                  the   12464 179284     1         0.0695
#>  4 The Mysteries of Udolpho and    9818 294093     2         0.0334
#>  5 The Mysteries of Udolpho to     9693 294093     3         0.0330
#>  6 The Mysteries of Udolpho of     9523 294093     4         0.0324
#>  7 The Woman in White       to     8486 250487     2         0.0339
#>  8 Great Expectations       the    8145 188943     1         0.0431
#>  9 The Portrait of a Lady   the    8066 233165     1         0.0346
#> 10 Dracula                  the    7865 161799     1         0.0486
#> # ℹ 150,515 more rows

Or do some Topic Modeling:

# Using novels to do some Topic Modeling
# Part 1: Find the books you want to use in Topic Modeling 
# Search for Novels that have CHAPTER I... In Them 
novels() %>%
  filter(str_detect(text, "^chapter ")) %>%
  select(title, text)
#> # A tibble: 352 × 2
#>    title             text        
#>    <chr>             <chr>       
#>  1 Wuthering Heights chapter i   
#>  2 Wuthering Heights chapter ii  
#>  3 Wuthering Heights chapter iii 
#>  4 Wuthering Heights chapter iv  
#>  5 Wuthering Heights chapter v   
#>  6 Wuthering Heights chapter vi  
#>  7 Wuthering Heights chapter vii 
#>  8 Wuthering Heights chapter viii
#>  9 Wuthering Heights chapter ix  
#> 10 Wuthering Heights chapter x   
#> # ℹ 342 more rows
…
book_words = book_chapters %>%
  unnest_tokens(word, text) 

book_wordcounts = book_words %>%
  anti_join(get_stopwords("en", source = "smart")) %>%
  count(document, word, sort = T)

book_wordcounts
#> # A tibble: 140,505 × 3
#>    document                  word       n
#>    <chr>                     <chr>  <int>
#>  1 Ivanhoe_27                thou      75
#>  2 The Portrait of a Lady_19 isabel    69
#>  3 Ivanhoe_40                knight    66
#>  4 Ivanhoe_27                de        61
#>  5 The Portrait of a Lady_40 isabel    61
#>  6 Ivanhoe_39                thou      60
#>  7 The Portrait of a Lady_51 isabel    57
#>  8 Ivanhoe_33                thou      55
#>  9 Ivanhoe_33                prior     53
#> 10 The Portrait of a Lady_52 isabel    53
#> # ℹ 140,495 more rows
…
# Use LDA in Four Topic Modeling given we have Four Documents
book_chapter_LDA = LDA(book_chapter_DTM, k = 4, control = list(seed = 1234))
book_chapter_LDA
#> A LDA_VEM topic model with 4 topics.

# Finally, examine a per topic per word probabilities 
book_topics = tidy(book_chapter_LDA, matrix = "beta")
book_topics
#> # A tibble: 78,740 × 3
#>    topic term        beta
#>    <int> <chr>      <dbl>
#>  1     1 thou   2.16e-  4
#>  2     2 thou   3.70e-  4
#>  3     3 thou   6.10e-172
#>  4     4 thou   1.26e-  2
#>  5     1 isabel 2.07e- 11
#>  6     2 isabel 5.23e- 21
#>  7     3 isabel 1.93e-  2
#>  8     4 isabel 9.50e-208
#>  9     1 knight 3.88e- 22
#> 10     2 knight 4.70e- 36
#> # ℹ 78,730 more rows
…
